…
  path <- tempfile("fcadata")

  download_data(
    year = 2022,
    month = "December",
    dest = path
  )
#> Files successfully downloaded into /tmp/RtmpzhZ4et/fcadata40437203bb3

  processed_data <- process_data(path)

  # Access "RCB" data
  processed_data$data$RCB
#> # A tibble: 2,520 × 11
#>    SYSTEM  DIST ASSOC MONTH  YEAR UNINUM INV_CODE BKVAL MKTVAL BKVALFORSALE
#>     <int> <int> <int> <int> <int>  <int>    <int> <int>  <int>        <int>
#>  1      6    10     0    12  2022 610000       10     0      0       841444
#>  2      6    10     0    12  2022 610000       15     0      0        82234
#>  3      6    10     0    12  2022 610000       17     0      0        54888
#>  4      6    10     0    12  2022 610000       25     0      0            0
#>  5      6    10     0    12  2022 610000       29     0      0            0
#>  6      6    10     0    12  2022 610000       35     0      0            0
#>  7      6    10     0    12  2022 610000       40     0      0       301678
#>  8      6    10     0    12  2022 610000       41     0      0       200000
#>  9      6    10     0    12  2022 610000       50     0      0            0
#> 10      6    10     0    12  2022 610000       51     0      0            0
#> # ℹ 2,510 more rows
#> # ℹ 1 more variable: MKTVALFORSALE <int>
…
